2024 - Implementacion de un procesador según la arqutectura rv32i de RISC-V/Codigo fuente/rv32i/rv32i_tb.vcd
$date
	Sun Nov 17 16:53:20 2024
$end
$version
	Icarus Verilog
$end
$timescale
	1ps
$end
$scope module rv32i_tb $end
$var reg 1 ! clk $end
$var reg 1 " rst $end
$scope module UUT $end
$var wire 1 ! clk $end
$var wire 1 " rst $end
$var wire 1 # zero $end
$var wire 32 $ pc [31:0] $end
$var wire 32 % instruccion [31:0] $end
$var wire 32 & WriteData [31:0] $end
$var wire 2 ' ResultSrc [1:0] $end
$var wire 1 ( RegWrite $end
$var wire 32 ) ReadData [31:0] $end
$var wire 1 * PCSrc $end
$var wire 1 + MemWrite $end
$var wire 2 , ImmSrc [1:0] $end
$var wire 1 - ALUSrc $end
$var wire 32 . ALUResult [31:0] $end
$var wire 3 / ALUControl [2:0] $end
$scope module UC_0 $end
$var wire 3 0 f3 [2:0] $end
$var wire 1 1 f7 $end
$var wire 7 2 op [6:0] $end
$var wire 1 # zero $end
$var wire 2 3 resSrc [1:0] $end
$var wire 1 ( regWrite $end
$var wire 1 + memWrite $end
$var wire 1 4 jump $end
$var wire 2 5 immSrc [1:0] $end
$var wire 1 6 branch $end
$var wire 1 - aluSrc $end
$var wire 2 7 aluOp [1:0] $end
$var wire 3 8 aluControl [2:0] $end
$var reg 1 * pcSrc $end
$scope module aluDeco_0 $end
$var wire 3 9 f3 [2:0] $end
$var wire 1 1 f7 $end
$var wire 1 : op $end
$var wire 2 ; aluOp [1:0] $end
$var reg 3 < aluControl [2:0] $end
$upscope $end
$scope module mainDeco_0 $end
$var wire 7 = op [6:0] $end
$var reg 2 > aluOp [1:0] $end
$var reg 1 - aluSrc $end
$var reg 1 6 branch $end
$var reg 2 ? inmSrc [1:0] $end
$var reg 1 4 jump $end
$var reg 1 + memWrite $end
$var reg 1 ( regWrite $end
$var reg 2 @ resSrc [1:0] $end
$upscope $end
$upscope $end
$scope module dataPath_0 $end
$var wire 3 A ALUControl [2:0] $end
$var wire 1 - ALUSrc $end
$var wire 2 B ImmSrc [1:0] $end
$var wire 1 * PCSrc $end
$var wire 1 ( RegWrite $end
$var wire 2 C ResultSrc [1:0] $end
$var wire 32 D WriteData [31:0] $end
$var wire 1 ! clk $end
$var wire 32 E cuatro [31:0] $end
$var wire 1 " rst $end
$var wire 1 # zero $end
$var wire 32 F pcNext [31:0] $end
$var wire 32 G pc [31:0] $end
$var wire 32 H instruccion [31:0] $end
$var wire 32 I immExt [31:0] $end
$var wire 32 J SrcB [31:0] $end
$var wire 32 K Result [31:0] $end
$var wire 32 L ReadData [31:0] $end
$var wire 32 M RD2 [31:0] $end
$var wire 32 N RD1 [31:0] $end
$var wire 32 O PCTarget [31:0] $end
$var wire 32 P PCPlus4 [31:0] $end
$var wire 32 Q ALUResult [31:0] $end
$scope module ALU_0 $end
$var wire 3 R ALUControl [2:0] $end
$var wire 32 S srcB [31:0] $end
$var wire 32 T srcA [31:0] $end
$var reg 32 U result [31:0] $end
$var reg 1 # zero $end
$upscope $end
$scope module Adder_0 $end
$var wire 32 V op2 [31:0] $end
$var wire 32 W op1 [31:0] $end
$var reg 32 X res [31:0] $end
$upscope $end
$scope module Adder_1 $end
$var wire 32 Y op2 [31:0] $end
$var wire 32 Z op1 [31:0] $end
$var reg 32 [ res [31:0] $end
$upscope $end
$scope module BR_0 $end
$var wire 5 \ a1 [4:0] $end
$var wire 5 ] a2 [4:0] $end
$var wire 5 ^ a3 [4:0] $end
$var wire 1 ! clk $end
$var wire 1 " rst $end
$var wire 1 ( we $end
$var wire 32 _ wd [31:0] $end
$var reg 32 ` rd1 [31:0] $end
$var reg 32 a rd2 [31:0] $end
$upscope $end
$scope module Mux2x1_0 $end
$var wire 32 b e1 [31:0] $end
$var wire 32 c e2 [31:0] $end
$var wire 1 * sel $end
$var reg 32 d salMux [31:0] $end
$upscope $end
$scope module Mux2x1_1 $end
$var wire 32 e e1 [31:0] $end
$var wire 1 - sel $end
$var wire 32 f e2 [31:0] $end
$var reg 32 g salMux [31:0] $end
$upscope $end
$scope module Mux3x1_0 $end
$var wire 32 h e1 [31:0] $end
$var wire 32 i e3 [31:0] $end
$var wire 2 j sel [1:0] $end
$var wire 32 k e2 [31:0] $end
$var reg 32 l salMux [31:0] $end
$upscope $end
$scope module PC_0 $end
$var wire 1 ! clk $end
$var wire 32 m pcNext [31:0] $end
$var wire 1 " rst $end
$var reg 32 n pc [31:0] $end
$upscope $end
$scope module SE_0 $end
$var wire 25 o inm [31:7] $end
$var wire 2 p src [1:0] $end
$var reg 32 q inmExt [31:0] $end
$upscope $end
$upscope $end
$scope module memory_0 $end
$var wire 5 r ALUResult [4:0] $end
$var wire 1 + MemWrite $end
$var wire 32 s WriteData [31:0] $end
$var wire 1 ! clk $end
$var wire 5 t pc [4:0] $end
$var wire 1 u rst $end
$var wire 32 v instruccion [31:0] $end
$var wire 32 w ReadData [31:0] $end
$scope module DM_0 $end
$var wire 5 x addressDM [4:0] $end
$var wire 1 ! clk $end
$var wire 1 u rst $end
$var wire 32 y wd [31:0] $end
$var wire 1 + we $end
$var reg 32 z rd [31:0] $end
$upscope $end
$scope module IM_0 $end
$var wire 5 { addressIM [4:0] $end
$var reg 32 | inst [31:0] $end
$upscope $end
$upscope $end
$upscope $end
$upscope $end
$enddefinitions $end
$comment Show the parameter values. $end
$dumpall
$end
#0
$dumpvars
b1100000000010000010011 |
b0 {
bx z
b0 y
b0 x
bx w
b1100000000010000010011 v
zu
b0 t
b0 s
b0 r
b11 q
b0 p
b110000000001000 o
b0 n
b100 m
b11 l
bx k
b0 j
b100 i
b11 h
b11 g
b11 f
b0 e
b100 d
b11 c
b100 b
b0 a
b0 `
b11 _
b1000 ^
b11 ]
b0 \
b11 [
b0 Z
b11 Y
b100 X
b0 W
b100 V
b11 U
b0 T
b11 S
b0 R
b11 Q
b100 P
b11 O
b0 N
b0 M
bx L
b11 K
b11 J
b11 I
b1100000000010000010011 H
b0 G
b100 F
b100 E
b0 D
b0 C
b0 B
b0 A
b0 @
b0 ?
b10 >
b10011 =
b0 <
b10 ;
0:
b0 9
b0 8
b10 7
06
b0 5
04
b0 3
b10011 2
01
b0 0
b0 /
b11 .
1-
b0 ,
0+
0*
bx )
1(
b0 '
b0 &
b1100000000010000010011 %
b0 $
0#
1"
0!
$end
#1000
b1 K
b1 _
b1 l
b1 .
b1 Q
b1 U
b1 h
b1 J
b1 S
b1 g
b1 I
b1 Y
b1 f
b1 q
b10000000001001 o
b1001 ^
b1 ]
b100000000010010010011 %
b100000000010010010011 H
b100000000010010010011 v
b100000000010010010011 |
b1000 F
b1000 d
b1000 m
b1 t
b1 {
b1000 P
b1000 X
b1000 b
b1000 i
b101 O
b101 [
b101 c
b100 $
b100 G
b100 W
b100 Z
b100 n
0"
1!
#2000
0!
#3000
b10000 K
b10000 _
b10000 l
b100 r
b100 x
b10000 .
b10000 Q
b10000 U
b10000 h
b10000 J
b10000 S
b10000 g
b10000 I
b10000 Y
b10000 f
b10000 q
b100000000000010010 o
b10010 ^
b10000 ]
b1000000000000100100010011 %
b1000000000000100100010011 H
b1000000000000100100010011 v
b1000000000000100100010011 |
b1100 F
b1100 d
b1100 m
b10 t
b10 {
b1100 P
b1100 X
b1100 b
b1100 i
b11000 O
b11000 [
b11000 c
b1000 $
b1000 G
b1000 W
b1000 Z
b1000 n
1!
#4000
0!
#5000
b11 K
b11 _
b11 l
b0 r
b0 x
b11 .
b11 Q
b11 U
b11 h
b1 J
b1 S
b1 g
b0 I
b0 Y
b0 f
b0 q
b1 &
b1 D
b1 s
b1 y
b1 M
b1 a
b1 e
b11 N
b11 T
b11 `
b11 /
b11 8
b11 <
b11 A
b11 R
1:
0-
bx ,
bx 5
bx ?
bx B
bx p
b10010100011000101 o
b101 ^
b1001 ]
b1000 \
b110 0
b110 9
b110011 2
b110011 =
b100101000110001010110011 %
b100101000110001010110011 H
b100101000110001010110011 v
b100101000110001010110011 |
b10000 F
b10000 d
b10000 m
b11 t
b11 {
b10000 P
b10000 X
b10000 b
b10000 i
b1100 O
b1100 [
b1100 c
b1100 $
b1100 G
b1100 W
b1100 Z
b1100 n
1!
#6000
0!
#7000
b1 K
b1 _
b1 l
b1 .
b1 Q
b1 U
b1 h
b10 /
b10 8
b10 <
b10 A
b10 R
b10010100011100110 o
b110 ^
b111 0
b111 9
b100101000111001100110011 %
b100101000111001100110011 H
b100101000111001100110011 v
b100101000111001100110011 |
b10100 F
b10100 d
b10100 m
b100 t
b100 {
b10100 P
b10100 X
b10100 b
b10100 i
b10000 O
b10000 [
b10000 c
b10000 $
b10000 G
b10000 W
b10000 Z
b10000 n
1!
#8000
0!
#9000
b100 K
b100 _
b100 l
b1 r
b1 x
b100 .
b100 Q
b100 U
b100 h
b0 /
b0 8
b0 <
b0 A
b0 R
b10010100000000111 o
b111 ^
b0 0
b0 9
b100101000000001110110011 %
b100101000000001110110011 H
b100101000000001110110011 v
b100101000000001110110011 |
b11000 F
b11000 d
b11000 m
b101 t
b101 {
b11000 P
b11000 X
b11000 b
b11000 i
b10100 O
b10100 [
b10100 c
b10100 $
b10100 G
b10100 W
b10100 Z
b10100 n
1!
#10000
0!
#11000
b10 K
b10 _
b10 l
b0 r
b0 x
b10 .
b10 Q
b10 U
b10 h
b1 /
b1 8
b1 <
b1 A
b1 R
b100000010010100000011100 o
b11100 ^
11
b1000000100101000000111000110011 %
b1000000100101000000111000110011 H
b1000000100101000000111000110011 v
b1000000100101000000111000110011 |
b11100 F
b11100 d
b11100 m
b110 t
b110 {
b11100 P
b11100 X
b11100 b
b11100 i
b11000 O
b11000 [
b11000 c
b11000 $
b11000 G
b11000 W
b11000 Z
b11000 n
1!
#12000
0!
#13000
b11111 r
b11111 x
b11111111111111111111111111111110 K
b11111111111111111111111111111110 _
b11111111111111111111111111111110 l
b11 J
b11 S
b11 g
0#
b11111111111111111111111111111110 .
b11111111111111111111111111111110 Q
b11111111111111111111111111111110 U
b11111111111111111111111111111110 h
b11 &
b11 D
b11 s
b11 y
b11 M
b11 a
b11 e
b1 N
b1 T
b1 `
b100000010000100100011101 o
b11101 ^
b1000 ]
b1001 \
b1000000100001001000111010110011 %
b1000000100001001000111010110011 H
b1000000100001001000111010110011 v
b1000000100001001000111010110011 |
b100000 F
b100000 d
b100000 m
b111 t
b111 {
b100000 P
b100000 X
b100000 b
b100000 i
b11100 O
b11100 [
b11100 c
b11100 $
b11100 G
b11100 W
b11100 Z
b11100 n
1!
#14000
0!
#15000
b0 K
b0 _
b0 l
b0 r
b0 x
b1 J
b1 S
b1 g
1#
b0 .
b0 Q
b0 U
b0 h
b1 &
b1 D
b1 s
b1 y
b1 M
b1 a
b1 e
b11 N
b11 T
b11 `
b101 /
b101 8
b101 <
b101 A
b101 R
b10010100001011110 o
b11110 ^
b1001 ]
b1000 \
01
b10 0
b10 9
b100101000010111100110011 %
b100101000010111100110011 H
b100101000010111100110011 v
b100101000010111100110011 |
b100100 F
b100100 d
b100100 m
b1000 t
b1000 {
b100100 P
b100100 X
b100100 b
b100100 i
b100000 O
b100000 [
b100000 c
b100000 $
b100000 G
b100000 W
b100000 Z
b100000 n
1!
#16000
0!
#17000
b1 K
b1 _
b1 l
0#
b1 .
b1 Q
b1 U
b1 h
b11 J
b11 S
b11 g
b11 &
b11 D
b11 s
b11 y
b11 M
b11 a
b11 e
b1 N
b1 T
b1 `
b10000100101011111 o
b11111 ^
b1000 ]
b1001 \
b100001001010111110110011 %
b100001001010111110110011 H
b100001001010111110110011 v
b100001001010111110110011 |
b101000 F
b101000 d
b101000 m
b1001 t
b1001 {
b101000 P
b101000 X
b101000 b
b101000 i
b100100 O
b100100 [
b100100 c
b100100 $
b100100 G
b100100 W
b100100 Z
b100100 n
1!
#18000
0!
#19000
b11111111111111111111111111111110 J
b11111111111111111111111111111110 S
b11111111111111111111111111111110 g
b11111111111111111111111111111110 &
b11111111111111111111111111111110 D
b11111111111111111111111111111110 s
b11111111111111111111111111111110 y
b11111111111111111111111111111110 M
b11111111111111111111111111111110 a
b11111111111111111111111111111110 e
b111010100101011111 o
b11101 ]
b1110101001010111110110011 %
b1110101001010111110110011 H
b1110101001010111110110011 v
b1110101001010111110110011 |
b101100 F
b101100 d
b101100 m
b1010 t
b1010 {
b101100 P
b101100 X
b101100 b
b101100 i
b101000 O
b101000 [
b101000 c
b101000 $
b101000 G
b101000 W
b101000 Z
b101000 n
1!
#20000
0!
#21000
b1 J
b1 S
b1 g
b1 I
b1 Y
b1 f
b1 q
b0 &
b0 D
b0 s
b0 y
b0 M
b0 a
b0 e
b0 N
b0 T
b0 `
b0 /
b0 8
b0 <
b0 A
b0 R
0:
1-
b0 ,
b0 5
b0 ?
b0 B
b0 p
b10000000000101 o
b101 ^
b1 ]
b0 \
b0 0
b0 9
b10011 2
b10011 =
b100000000001010010011 %
b100000000001010010011 H
b100000000001010010011 v
b100000000001010010011 |
b110000 F
b110000 d
b110000 m
b1011 t
b1011 {
b110000 P
b110000 X
b110000 b
b110000 i
b101101 O
b101101 [
b101101 c
b101100 $
b101100 G
b101100 W
b101100 Z
b101100 n
1!
#22000
0!
#23000
b0 K
b0 _
b0 l
1#
b0 .
b0 Q
b0 U
b0 h
b0 J
b0 S
b0 g
b0 I
b0 Y
b0 f
b0 q
b110 o
b110 ^
b0 ]
b1100010011 %
b1100010011 H
b1100010011 v
b1100010011 |
b110100 F
b110100 d
b110100 m
b1100 t
b1100 {
b110100 P
b110100 X
b110100 b
b110100 i
b110000 O
b110000 [
b110000 c
b110000 $
b110000 G
b110000 W
b110000 Z
b110000 n
1!
#24000
0!
#25000
b11100 r
b11100 x
0#
b11111111111111111111111111110001 .
b11111111111111111111111111110001 Q
b11111111111111111111111111110001 U
b11111111111111111111111111110001 h
b1 /
b1 8
b1 <
b1 A
b1 R
0*
b10000 J
b10000 S
b10000 g
b10000 I
b10000 Y
b10000 f
b10000 q
b10000 &
b10000 D
b10000 s
b10000 y
b10000 M
b10000 a
b10000 e
b1 N
b1 T
b1 `
1:
b1 7
b1 ;
b1 >
16
bx '
bx 3
bx @
bx C
bx j
0-
b10 ,
b10 5
b10 ?
b10 B
b10 p
0(
b100100010100010000 o
b10000 ^
b10010 ]
b101 \
b1100011 2
b1100011 =
b1001000101000100001100011 %
b1001000101000100001100011 H
b1001000101000100001100011 v
b1001000101000100001100011 |
b111000 F
b111000 d
b111000 m
b1101 t
b1101 {
b111000 P
b111000 X
b111000 b
b111000 i
b1000100 O
b1000100 [
b1000100 c
b110100 $
b110100 G
b110100 W
b110100 Z
b110100 n
1!
#26000
0!
#27000
b0 r
b0 x
b10 .
b10 Q
b10 U
b10 h
b1 J
b1 S
b1 g
b0 /
b0 8
b0 <
b0 A
b0 R
b10 K
b10 _
b10 l
b0 I
b0 Y
b0 f
b0 q
b1 &
b1 D
b1 s
b1 y
b1 M
b1 a
b1 e
b10 7
b10 ;
b10 >
06
b0 '
b0 3
b0 @
b0 C
b0 j
bx ,
bx 5
bx ?
bx B
bx p
1(
b1010010100000101 o
b101 ^
b101 ]
b110011 2
b110011 =
b10100101000001010110011 %
b10100101000001010110011 H
b10100101000001010110011 v
b10100101000001010110011 |
b111100 F
b111100 d
b111100 m
b1110 t
b1110 {
b111100 P
b111100 X
b111100 b
b111100 i
b111000 O
b111000 [
b111000 c
b111000 $
b111000 G
b111000 W
b111000 Z
b111000 n
1!
#28000
0!
#29000
b0 /
b0 8
b0 <
b0 A
b0 R
b0 r
b0 x
b1 I
b1 Y
b1 f
b1 q
0:
1-
b0 ,
b0 5
b0 ?
b0 B
b0 p
b1 K
b1 _
b1 l
b10011000000110 o
b110 ^
b1 ]
b110 \
b10011 2
b10011 =
b1 J
b1 S
b1 g
b1 .
b1 Q
b1 U
b1 h
b100110000001100010011 %
b100110000001100010011 H
b100110000001100010011 v
b100110000001100010011 |
b1000000 F
b1000000 d
b1000000 m
b0 &
b0 D
b0 s
b0 y
b0 M
b0 a
b0 e
b0 N
b0 T
b0 `
b1111 t
b1111 {
b1000000 P
b1000000 X
b1000000 b
b1000000 i
b111101 O
b111101 [
b111101 c
b111100 $
b111100 G
b111100 W
b111100 Z
b111100 n
1!
#30000
0!
#31000
1#
1*
b11111111111111111111111111110100 I
b11111111111111111111111111110100 Y
b11111111111111111111111111110100 f
b11111111111111111111111111110100 q
bx /
bx 8
bx <
bx A
bx R
1:
14
bx 7
bx ;
bx >
b10 '
b10 3
b10 @
b10 C
b10 j
x-
b11 ,
b11 5
b11 ?
b11 B
b11 p
b1111111101011111111100000 o
b0 ^
b10101 ]
b11111 \
11
b111 0
b111 9
b1101111 2
b1101111 =
b11111111010111111111000001101111 %
b11111111010111111111000001101111 H
b11111111010111111111000001101111 v
b11111111010111111111000001101111 |
b1000100 K
b1000100 _
b1000100 l
b110100 F
b110100 d
b110100 m
b0 .
b0 Q
b0 U
b0 h
b10000 t
b10000 {
b1000100 P
b1000100 X
b1000100 b
b1000100 i
b110100 O
b110100 [
b110100 c
b1 N
b1 T
b1 `
b1000000 $
b1000000 G
b1000000 W
b1000000 Z
b1000000 n
1!
#32000
0!
#33000
0*
b11100 r
b11100 x
0#
b11111111111111111111111111110010 .
b11111111111111111111111111110010 Q
b11111111111111111111111111110010 U
b11111111111111111111111111110010 h
b10000 J
b10000 S
b10000 g
b10000 I
b10000 Y
b10000 f
b10000 q
b10000 &
b10000 D
b10000 s
b10000 y
b10000 M
b10000 a
b10000 e
b10 N
b10 T
b10 `
b1 /
b1 8
b1 <
b1 A
b1 R
04
b1 7
b1 ;
b1 >
16
bx '
bx 3
bx @
bx C
bx j
0-
b10 ,
b10 5
b10 ?
b10 B
b10 p
0(
b100100010100010000 o
b10000 ^
b10010 ]
b101 \
01
b0 0
b0 9
b1100011 2
b1100011 =
b1001000101000100001100011 %
b1001000101000100001100011 H
b1001000101000100001100011 v
b1001000101000100001100011 |
b111000 K
b111000 _
b111000 l
b111000 F
b111000 d
b111000 m
b1101 t
b1101 {
b111000 P
b111000 X
b111000 b
b111000 i
b1000100 O
b1000100 [
b1000100 c
b110100 $
b110100 G
b110100 W
b110100 Z
b110100 n
1!
#34000
0!
#35000
b1 r
b1 x
b100 .
b100 Q
b100 U
b100 h
b10 J
b10 S
b10 g
b0 /
b0 8
b0 <
b0 A
b0 R
b100 K
b100 _
b100 l
b0 I
b0 Y
b0 f
b0 q
b10 &
b10 D
b10 s
b10 y
b10 M
b10 a
b10 e
b10 7
b10 ;
b10 >
06
b0 '
b0 3
b0 @
b0 C
b0 j
bx ,
bx 5
bx ?
bx B
bx p
1(
b1010010100000101 o
b101 ^
b101 ]
b110011 2
b110011 =
b10100101000001010110011 %
b10100101000001010110011 H
b10100101000001010110011 v
b10100101000001010110011 |
b111100 F
b111100 d
b111100 m
b1110 t
b1110 {
b111100 P
b111100 X
b111100 b
b111100 i
b111000 O
b111000 [
b111000 c
b111000 $
b111000 G
b111000 W
b111000 Z
b111000 n
1!
#36000
0!
#37000
b0 /
b0 8
b0 <
b0 A
b0 R
b0 r
b0 x
b1 I
b1 Y
b1 f
b1 q
0:
1-
b0 ,
b0 5
b0 ?
b0 B
b0 p
b10 K
b10 _
b10 l
b10011000000110 o
b110 ^
b1 ]
b110 \
b10011 2
b10011 =
b1 J
b1 S
b1 g
b10 .
b10 Q
b10 U
b10 h
b100110000001100010011 %
b100110000001100010011 H
b100110000001100010011 v
b100110000001100010011 |
b1000000 F
b1000000 d
b1000000 m
b0 &
b0 D
b0 s
b0 y
b0 M
b0 a
b0 e
b1 N
b1 T
b1 `
b1111 t
b1111 {
b1000000 P
b1000000 X
b1000000 b
b1000000 i
b111101 O
b111101 [
b111101 c
b111100 $
b111100 G
b111100 W
b111100 Z
b111100 n
1!
#38000
0!
#39000
1#
1*
b11111111111111111111111111110100 I
b11111111111111111111111111110100 Y
b11111111111111111111111111110100 f
b11111111111111111111111111110100 q
bx /
bx 8
bx <
bx A
bx R
1:
14
bx 7
bx ;
bx >
b10 '
b10 3
b10 @
b10 C
b10 j
x-
b11 ,
b11 5
b11 ?
b11 B
b11 p
b1111111101011111111100000 o
b0 ^
b10101 ]
b11111 \
11
b111 0
b111 9
b1101111 2
b1101111 =
b11111111010111111111000001101111 %
b11111111010111111111000001101111 H
b11111111010111111111000001101111 v
b11111111010111111111000001101111 |
b1000100 K
b1000100 _
b1000100 l
b110100 F
b110100 d
b110100 m
b0 .
b0 Q
b0 U
b0 h
b10000 t
b10000 {
b1000100 P
b1000100 X
b1000100 b
b1000100 i
b110100 O
b110100 [
b110100 c
b1 N
b1 T
b1 `
b1000000 $
b1000000 G
b1000000 W
b1000000 Z
b1000000 n
1!
#40000
0!
#41000
0*
b11101 r
b11101 x
0#
b11111111111111111111111111110100 .
b11111111111111111111111111110100 Q
b11111111111111111111111111110100 U
b11111111111111111111111111110100 h
b10000 J
b10000 S
b10000 g
b10000 I
b10000 Y
b10000 f
b10000 q
b10000 &
b10000 D
b10000 s
b10000 y
b10000 M
b10000 a
b10000 e
b100 N
b100 T
b100 `
b1 /
b1 8
b1 <
b1 A
b1 R
04
b1 7
b1 ;
b1 >
16
bx '
bx 3
bx @
bx C
bx j
0-
b10 ,
b10 5
b10 ?
b10 B
b10 p
0(
b100100010100010000 o
b10000 ^
b10010 ]
b101 \
01
b0 0
b0 9
b1100011 2
b1100011 =
b1001000101000100001100011 %
b1001000101000100001100011 H
b1001000101000100001100011 v
b1001000101000100001100011 |
b111000 K
b111000 _
b111000 l
b111000 F
b111000 d
b111000 m
b1101 t
b1101 {
b111000 P
b111000 X
b111000 b
b111000 i
b1000100 O
b1000100 [
b1000100 c
b110100 $
b110100 G
b110100 W
b110100 Z
b110100 n
1!
#42000
0!
#43000
b10 r
b10 x
b1000 .
b1000 Q
b1000 U
b1000 h
b100 J
b100 S
b100 g
b0 /
b0 8
b0 <
b0 A
b0 R
b1000 K
b1000 _
b1000 l
b0 I
b0 Y
b0 f
b0 q
b100 &
b100 D
b100 s
b100 y
b100 M
b100 a
b100 e
b10 7
b10 ;
b10 >
06
b0 '
b0 3
b0 @
b0 C
b0 j
bx ,
bx 5
bx ?
bx B
bx p
1(
b1010010100000101 o
b101 ^
b101 ]
b110011 2
b110011 =
b10100101000001010110011 %
b10100101000001010110011 H
b10100101000001010110011 v
b10100101000001010110011 |
b111100 F
b111100 d
b111100 m
b1110 t
b1110 {
b111100 P
b111100 X
b111100 b
b111100 i
b111000 O
b111000 [
b111000 c
b111000 $
b111000 G
b111000 W
b111000 Z
b111000 n
1!
#44000
0!
#45000
b0 /
b0 8
b0 <
b0 A
b0 R
b1 I
b1 Y
b1 f
b1 q
0:
1-
b0 ,
b0 5
b0 ?
b0 B
b0 p
b11 K
b11 _
b11 l
b0 r
b0 x
b10011000000110 o
b110 ^
b1 ]
b110 \
b10011 2
b10011 =
b1 J
b1 S
b1 g
b11 .
b11 Q
b11 U
b11 h
b100110000001100010011 %
b100110000001100010011 H
b100110000001100010011 v
b100110000001100010011 |
b1000000 F
b1000000 d
b1000000 m
b0 &
b0 D
b0 s
b0 y
b0 M
b0 a
b0 e
b10 N
b10 T
b10 `
b1111 t
b1111 {
b1000000 P
b1000000 X
b1000000 b
b1000000 i
b111101 O
b111101 [
b111101 c
b111100 $
b111100 G
b111100 W
b111100 Z
b111100 n
1!
#46000
0!
#47000
1#
1*
b11111111111111111111111111110100 I
b11111111111111111111111111110100 Y
b11111111111111111111111111110100 f
b11111111111111111111111111110100 q
bx /
bx 8
bx <
bx A
bx R
1:
14
bx 7
bx ;
bx >
b10 '
b10 3
b10 @
b10 C
b10 j
x-
b11 ,
b11 5
b11 ?
b11 B
b11 p
b1111111101011111111100000 o
b0 ^
b10101 ]
b11111 \
11
b111 0
b111 9
b1101111 2
b1101111 =
b0 r
b0 x
b11111111010111111111000001101111 %
b11111111010111111111000001101111 H
b11111111010111111111000001101111 v
b11111111010111111111000001101111 |
b1000100 K
b1000100 _
b1000100 l
b110100 F
b110100 d
b110100 m
b0 .
b0 Q
b0 U
b0 h
b10000 t
b10000 {
b1000100 P
b1000100 X
b1000100 b
b1000100 i
b110100 O
b110100 [
b110100 c
b1 N
b1 T
b1 `
b1000000 $
b1000000 G
b1000000 W
b1000000 Z
b1000000 n
1!
#48000
0!
#49000
0*
b11110 r
b11110 x
0#
b11111111111111111111111111111000 .
b11111111111111111111111111111000 Q
b11111111111111111111111111111000 U
b11111111111111111111111111111000 h
b10000 J
b10000 S
b10000 g
b10000 I
b10000 Y
b10000 f
b10000 q
b10000 &
b10000 D
b10000 s
b10000 y
b10000 M
b10000 a
b10000 e
b1000 N
b1000 T
b1000 `
b1 /
b1 8
b1 <
b1 A
b1 R
04
b1 7
b1 ;
b1 >
16
bx '
bx 3
bx @
bx C
bx j
0-
b10 ,
b10 5
b10 ?
b10 B
b10 p
0(
b100100010100010000 o
b10000 ^
b10010 ]
b101 \
01
b0 0
b0 9
b1100011 2
b1100011 =
b1001000101000100001100011 %
b1001000101000100001100011 H
b1001000101000100001100011 v
b1001000101000100001100011 |
b111000 K
b111000 _
b111000 l
b111000 F
b111000 d
b111000 m
b1101 t
b1101 {
b111000 P
b111000 X
b111000 b
b111000 i
b1000100 O
b1000100 [
b1000100 c
b110100 $
b110100 G
b110100 W
b110100 Z
b110100 n
1!
#50000
0!
#51000
b100 r
b100 x
b10000 .
b10000 Q
b10000 U
b10000 h
b1000 J
b1000 S
b1000 g
b0 /
b0 8
b0 <
b0 A
b0 R
b10000 K
b10000 _
b10000 l
b0 I
b0 Y
b0 f
b0 q
b1000 &
b1000 D
b1000 s
b1000 y
b1000 M
b1000 a
b1000 e
b10 7
b10 ;
b10 >
06
b0 '
b0 3
b0 @
b0 C
b0 j
bx ,
bx 5
bx ?
bx B
bx p
1(
b1010010100000101 o
b101 ^
b101 ]
b110011 2
b110011 =
b10100101000001010110011 %
b10100101000001010110011 H
b10100101000001010110011 v
b10100101000001010110011 |
b111100 F
b111100 d
b111100 m
b1110 t
b1110 {
b111100 P
b111100 X
b111100 b
b111100 i
b111000 O
b111000 [
b111000 c
b111000 $
b111000 G
b111000 W
b111000 Z
b111000 n
1!
#52000
0!
#53000
b0 /
b0 8
b0 <
b0 A
b0 R
b1 I
b1 Y
b1 f
b1 q
0:
1-
b0 ,
b0 5
b0 ?
b0 B
b0 p
b100 K
b100 _
b100 l
b1 r
b1 x
b10011000000110 o
b110 ^
b1 ]
b110 \
b10011 2
b10011 =
b1 J
b1 S
b1 g
b100 .
b100 Q
b100 U
b100 h
b100110000001100010011 %
b100110000001100010011 H
b100110000001100010011 v
b100110000001100010011 |
b1000000 F
b1000000 d
b1000000 m
b0 &
b0 D
b0 s
b0 y
b0 M
b0 a
b0 e
b11 N
b11 T
b11 `
b1111 t
b1111 {
b1000000 P
b1000000 X
b1000000 b
b1000000 i
b111101 O
b111101 [
b111101 c
b111100 $
b111100 G
b111100 W
b111100 Z
b111100 n
1!
#54000
0!
#55000
b0 r
b0 x
1#
1*
b11111111111111111111111111110100 I
b11111111111111111111111111110100 Y
b11111111111111111111111111110100 f
b11111111111111111111111111110100 q
bx /
bx 8
bx <
bx A
bx R
1:
14
bx 7
bx ;
bx >
b10 '
b10 3
b10 @
b10 C
b10 j
x-
b11 ,
b11 5
b11 ?
b11 B
b11 p
b1111111101011111111100000 o
b0 ^
b10101 ]
b11111 \
11
b111 0
b111 9
b1101111 2
b1101111 =
b11111111010111111111000001101111 %
b11111111010111111111000001101111 H
b11111111010111111111000001101111 v
b11111111010111111111000001101111 |
b1000100 K
b1000100 _
b1000100 l
b110100 F
b110100 d
b110100 m
b0 .
b0 Q
b0 U
b0 h
b10000 t
b10000 {
b1000100 P
b1000100 X
b1000100 b
b1000100 i
b110100 O
b110100 [
b110100 c
b1 N
b1 T
b1 `
b1000000 $
b1000000 G
b1000000 W
b1000000 Z
b1000000 n
1!
#56000
0!
#57000
b10000 J
b10000 S
b10000 g
b10000 I
b10000 Y
b10000 f
b10000 q
b10000 &
b10000 D
b10000 s
b10000 y
b10000 M
b10000 a
b10000 e
b10000 N
b10000 T
b10000 `
b1 /
b1 8
b1 <
b1 A
b1 R
04
b1 7
b1 ;
b1 >
16
bx '
bx 3
bx @
bx C
bx j
0-
b10 ,
b10 5
b10 ?
b10 B
b10 p
0(
b100100010100010000 o
b10000 ^
b10010 ]
b101 \
01
b0 0
b0 9
b1100011 2
b1100011 =
b1001000101000100001100011 %
b1001000101000100001100011 H
b1001000101000100001100011 v
b1001000101000100001100011 |
b111000 K
b111000 _
b111000 l
b1000100 F
b1000100 d
b1000100 m
b1101 t
b1101 {
b111000 P
b111000 X
b111000 b
b111000 i
b1000100 O
b1000100 [
b1000100 c
b110100 $
b110100 G
b110100 W
b110100 Z
b110100 n
1!
#58000
0!
#59000
b0 r
b0 x
b0 J
b0 S
b0 g
1#
b0 .
b0 Q
b0 U
b0 h
b0 /
b0 8
b0 <
b0 A
b0 R
0*
b0 K
b0 _
b0 l
b0 I
b0 Y
b0 f
b0 q
b0 &
b0 D
b0 s
b0 y
b0 M
b0 a
b0 e
b0 N
b0 T
b0 `
b10 7
b10 ;
b10 >
06
b0 '
b0 3
b0 @
b0 C
b0 j
bx ,
bx 5
bx ?
bx B
bx p
1(
b1001 o
b1001 ^
b0 ]
b0 \
b110011 2
b110011 =
b10010110011 %
b10010110011 H
b10010110011 v
b10010110011 |
b1001000 F
b1001000 d
b1001000 m
b10001 t
b10001 {
b1001000 P
b1001000 X
b1001000 b
b1001000 i
b1000100 O
b1000100 [
b1000100 c
b1000100 $
b1000100 G
b1000100 W
b1000100 Z
b1000100 n
1!
#60000
0!
